<svg width="16px" height="16px" viewBox="0 0 16 16">
<path d="M8,8c2.2,0,4-1.8,4-4s-1.8-4-4-4S4,1.8,4,4S5.8,8,8,8z M10.8,9h-0.5C9.6,9.3,8.9,9.5,8,9.5S6.4,9.3,5.7,9H5.2
	C2.9,9,1,10.9,1,13.2v1.3C1,15.4,1.6,16,2.5,16h11c0.9,0,1.5-0.6,1.5-1.5v-1.3C15,10.9,13.1,9,10.8,9z"/>
</svg>
